{
  "development": {
    "username": "root",
    "password": "bipin123",
    "database": "migration",
    "host": "127.0.0.1",
    "dialect": "mysql",

    "seedStorage": "json",
    "seederStoragePath": "sequelizeData.json",
    "seederStorageTableName": "sequelize_data"
  },
  "test": {
    "username": "root",
    "password": "bipin123",
    "database": "database_test",
    "host": "127.0.0.1",
    "dialect": "mysql"
  },
  "production": {
    "username": "root",
    "password": "bipin123",
    "database": "database_production",
    "host": "127.0.0.1",
    "dialect": "mysql"
  }
}
